water_boil_notices-mariaprobert - Cleaning
…
Here I will download the TCEQ data that I obtained from a public records request. The data goes over the counties or jurisdictions affected by water boil notices, start and end date of a water boil notice and the nature of the water boil notice.

More information about the data can be found on the index page of this notebook.

Downloaded the file straight into my computer rather than downloading it into this notebook because its in Excel formatting. I dowloaded the data into my data-raw folder.

Importing the Data

Here I am reading the data into my notebook that I already have downloaded to my “data-raw” folder. Then, we’re adding our data to a code chunk. For simplicity it will be called “water_boil” which we will then peak at in order to look at what our data looks like in order to clean.

water_boil <- read_excel("data-raw/water_boil_2018_2022.xlsx")

water_boil

# A tibble: 12,867 × 8
   `RN#`     `RN Name` `Start Date`        `End Date` Status County Jurisdiction
   <chr>     <chr>     <dttm>              <chr>      <chr>  <chr>  <chr>       
 1 RN100209… ORANGE C… 2021-06-08 00:00:00 44368      CLOSED ORANGE REGION 10 -…
 2 RN100209… ORANGE C… 2021-02-17 00:00:00 44253      CLOSED ORANGE REGION 10 -…
 3 RN100209… ORANGE C… 2020-09-02 00:00:00 44085      CLOSED ORANGE REGION 10 -…
 4 RN100210… INEOS GR… 2021-02-15 00:00:00 44256      CLOSED CALHO… REGION 14 -…
 5 RN100210… EQUISTAR… 2022-12-22 00:00:00 44932      CLOSED HARRIS REGION 12 -…
 6 RN100210… EQUISTAR… 2022-08-06 00:00:00 44788      CLOSED HARRIS <NA>        
 7 RN100210… EQUISTAR… 2022-07-12 00:00:00 44761      CLOSED HARRIS <NA>        
 8 RN100210… EQUISTAR… 2021-08-12 00:00:00 44427      CLOSED HARRIS <NA>        
 9 RN100210… EQUISTAR… 2021-02-17 00:00:00 44253      CLOSED HARRIS REGION 12 -…
10 RN100210… EQUISTAR… 2019-11-21 00:00:00 43794      CLOSED HARRIS <NA>        
# ℹ 12,857 more rows
# ℹ 1 more variable: Nature <chr>
…
