water_boil_notices-mariaprobert - Analysis
…
How many people in Texas are affected by water boil notices each year?

##Loading up tidyverse

library(tidyverse)
library(janitor)
library(readxl)

Importing Clean Data

water_boil <- read_rds("data-processed/01-water_boil.rds")

water_boil 

# A tibble: 6,655 × 17
   issued              rescinded           notice_length pws_id    pws_name     
   <dttm>              <dttm>              <drtn>        <chr>     <chr>        
 1 2023-12-31 00:00:00 2024-01-01 00:00:00  1 days       TX1460136 DAYTON OAKS …
 2 2023-12-31 00:00:00 2024-01-04 00:00:00  4 days       TX1830025 DEADWOOD WSC 
 3 2023-12-30 00:00:00 2024-01-02 00:00:00  3 days       TX0140006 CITY OF KILL…
 4 2023-12-30 00:00:00 2024-01-03 00:00:00  4 days       TX0960001 RRA ESTELLIN…
 5 2023-12-30 00:00:00 2024-01-01 00:00:00  2 days       TX1012133 HARRIS COUNT…
 6 2023-12-30 00:00:00 2024-01-03 00:00:00  4 days       TX1020081 GUM SPRINGS …
 7 2023-12-29 00:00:00 2024-01-06 00:00:00  8 days       TX0040003 COPANO COVE …
 8 2023-12-29 00:00:00 2024-01-03 00:00:00  5 days       TX1600001 CITY OF MASON
 9 2023-12-29 00:00:00 2024-01-10 00:00:00 12 days       TX1740005 APPLEBY WSC  
10 2023-12-29 00:00:00 2024-01-04 00:00:00  6 days       TX1740010 D & M WSC    
# ℹ 6,645 more rows
# ℹ 12 more variables: population <dbl>, pws_type <chr>, reason_activity <chr>,
#   reason <chr>, affected_area_activity <chr>, affected_area <chr>,
#   responsible_party <chr>, comments <chr>, region <chr>, county <chr>,
#   reissued_count <dbl>, nature <chr>

What counties and/or regions have the most amount of water boil notices?

Counties:

water_boil |>
  group_by(county) |>
  summarize(appearances = n()) |> 
  arrange(desc(appearances))

# A tibble: 223 × 2
   county     appearances
   <chr>            <int>
 1 HARRIS             725
 2 MONTGOMERY         357
 3 BELL               309
 4 BRAZORIA           258
 5 HOUSTON            246
 6 TRAVIS             232
 7 POLK               164
 8 LIBERTY            131
 9 HARRISON           129
10 CHEROKEE           116
# ℹ 213 more rows
…
Warning: There were 4 warnings in `summarize()`.
The first warning was:
ℹ In argument: `min_notice_length = min(notice_length, na.rm = TRUE)`.
ℹ In group 194: `county = "TERRY"`.
Caused by warning in `min()`:
! no non-missing arguments to min; returning Inf
ℹ Run `dplyr::last_dplyr_warnings()` to see the 3 remaining warnings.

# A tibble: 223 × 4
   county        average_notice_length min_notice_length max_notice_length
   <chr>         <drtn>                <drtn>            <drtn>           
 1 LIVE OAK      219.00000 days         3 days           366 days         
 2 DUVAL         170.00000 days         5 days           335 days         
 3 TITUS         125.00000 days         2 days           370 days         
 4 WOOD          114.57143 days         1 days           759 days         
 5 KENT           60.60000 days         3 days           271 days         
 6 GREGG          49.68182 days         1 days           493 days         
 7 COLLINGSWORTH  48.20000 days         2 days           223 days         
 8 DICKENS        48.00000 days         1 days           182 days         
 9 BRAZOS         40.77778 days         1 days           234 days         
10 PRESIDIO       38.00000 days        38 days            38 days         
# ℹ 213 more rows
…
TCEQ hasn’t answered my question about what the regions are yet…

What do ongoing water boil notices look like?

The original results for the duration of the water boil notices gave us a lot of NA results, which point to water boil notices that are ongoing at the time the data was collected.

Let’s look at the amount of ongoing water boil notices in each county in the time span of Jan. 2022 to the start of 2024.

water_boil |>
  filter(if_any(c(rescinded, notice_length), is.na)) |> 
  group_by(county) |>
 summarize(appearances = n()) |> 
 arrange(desc(appearances))

# A tibble: 42 × 2
   county    appearances
   <chr>           <int>
 1 HARRIS              4
 2 JOHNSON             4
 3 WISE                4
 4 CHEROKEE            3
 5 HENDERSON           3
 6 POLK                3
 7 BRAZOS              2
 8 BURLESON            2
 9 COMAL               2
10 DENTON              2
# ℹ 32 more rows
…
Data Takeaways: In Harris county at the time that this data was collected at least 13,594 people were affected by water boil notices.

Let’s look at the total population affected by water boil notices in each county:

water_boil |>
  filter(if_any(c(rescinded, notice_length), is.na)) |> 
  group_by(county) |>
  summarise(county_population_notice = sum(population)) |>
  arrange(desc(county_population_notice))

# A tibble: 42 × 2
   county   county_population_notice
   <chr>                       <dbl>
 1 HARRIS                      13594
 2 SMITH                        9113
 3 MCLENNAN                     4773
 4 BURLESON                     3263
 5 ANGELINA                     2211
 6 CASS                         1888
 7 CHEROKEE                     1827
 8 RUSK                         1734
 9 WISE                         1610
10 DENTON                       1584
# ℹ 32 more rows
…
